{
  "project_info": {
    "project_number": "372032065920",
    "firebase_url": "https://unity-67111.firebaseio.com",
    "project_id": "unity-67111",
    "storage_bucket": "unity-67111.appspot.com"
  },
  "client": [
    {
      "client_info": {
        "mobilesdk_app_id": "1:372032065920:android:dfb084d73f555d6c",
        "android_client_info": {
          "package_name": "com.anton.unitytest"
        }
      },
      "oauth_client": [
        {
          "client_id": "372032065920-uqsm0bob1ed2sdddjk9thrgvvscp8f6v.apps.googleusercontent.com",
          "client_type": 3
        }
      ],
      "api_key": [
        {
          "current_key": "AIzaSyAJeXOKGMaKwLeGzke0vp2Go2355jt_Y6o"
        }
      ],
      "services": {
        "analytics_service": {
          "status": 1
        },
        "appinvite_service": {
          "status": 1,
          "other_platform_oauth_client": []
        },
        "ads_service": {
          "status": 2
        }
      }
    }
  ],
  "configuration_version": "1"
}